
                    _                     _
                   | |                   | |
__      _____ _ __ | |__  _ __ ___  _ __ | | __
\ \ /\ / / _ \ '_ \| '_ \| '__/ _ \| '_ \| |/ /
 \ V  V /  __/ | | | |_) | | | (_) | | | |   <
  \_/\_/ \___|_| |_|_.__/|_|  \___/|_| |_|_|\_\

                                               